{
  "$schema": "../../node_modules/ng-packagr/ng-package.schema.json",
  "dest": "../../dist/common",
  "whitelistedNonPeerDependencies": [
    "@types/jasmine",
    "@types/node",
    "bootstrap",
    "spinkit",
    "jquery",
    "mathjs",
    "numeral",
    "crypto-js",
    "jsrsasign",
    "event-source-polyfill",
    "file-saver",
    "xlsx"
  ]
}
